LobsteR - NASDAQ under a "tidy" Microscope | Stefan Voigt
…
messages_raw

## # A tibble: 20,000 x 6
##    ts                   type order_id m_size m_price direction
##    <dttm>              <int>    <int>  <dbl>   <dbl>     <int>
##  1 2020-03-17 09:30:00     4 24654260    230    245          1
##  2 2020-03-17 09:30:00     3 24683304    500    245.        -1
##  3 2020-03-17 09:30:00     3 24690848    500    245.         1
##  4 2020-03-17 09:30:00     1 24699256    500    245.        -1
##  5 2020-03-17 09:30:00     3 24690812    500    245.        -1
##  6 2020-03-17 09:30:00     3 24699256    500    245.        -1
##  7 2020-03-17 09:30:00     1 24699992    500    245.         1
##  8 2020-03-17 09:30:00     1 24700384    500    245.         1
##  9 2020-03-17 09:30:00     3 24700384    500    245.         1
## 10 2020-03-17 09:30:00     1 24700516    500    245.         1
## # ... with 19,990 more rows
…
